%YAML 1.1
%TAG !u! tag:unity3d.com,2011:
--- !u!1 &2310629074815353023
GameObject:
  m_ObjectHideFlags: 0
  m_CorrespondingSourceObject: {fileID: 0}
  m_PrefabInstance: {fileID: 0}
  m_PrefabAsset: {fileID: 0}
  serializedVersion: 6
  m_Component:
  - component: {fileID: 10434789476695553}
  m_Layer: 0
  m_Name: WallDoorPrefab
  m_TagString: Untagged
  m_Icon: {fileID: 0}
  m_NavMeshLayer: 0
  m_StaticEditorFlags: 0
  m_IsActive: 1
--- !u!4 &10434789476695553
Transform:
  m_ObjectHideFlags: 0
  m_CorrespondingSourceObject: {fileID: 0}
  m_PrefabInstance: {fileID: 0}
  m_PrefabAsset: {fileID: 0}
  m_GameObject: {fileID: 2310629074815353023}
  m_LocalRotation: {x: 0, y: 0, z: 0, w: 1}
  m_LocalPosition: {x: 0, y: 0, z: 0}
  m_LocalScale: {x: 1, y: 1, z: 1}
  m_ConstrainProportionsScale: 0
  m_Children:
  - {fileID: 6397031436356099717}
  m_Father: {fileID: 0}
  m_RootOrder: 0
  m_LocalEulerAnglesHint: {x: 0, y: 0, z: 0}
--- !u!1001 &6866981521895356782
PrefabInstance:
  m_ObjectHideFlags: 0
  serializedVersion: 2
  m_Modification:
    m_TransformParent: {fileID: 10434789476695553}
    m_Modifications:
    - target: {fileID: -8679921383154817045, guid: a6bac1ad5487bbe4794ad30f2c071f7a,
        type: 3}
      propertyPath: m_RootOrder
      value: 0
      objectReference: {fileID: 0}
    - target: {fileID: -8679921383154817045, guid: a6bac1ad5487bbe4794ad30f2c071f7a,
        type: 3}
      propertyPath: m_LocalScale.x
      value: 0.4
      objectReference: {fileID: 0}
    - target: {fileID: -8679921383154817045, guid: a6bac1ad5487bbe4794ad30f2c071f7a,
        type: 3}
      propertyPath: m_LocalScale.y
      value: 0.5
      objectReference: {fileID: 0}
    - target: {fileID: -8679921383154817045, guid: a6bac1ad5487bbe4794ad30f2c071f7a,
        type: 3}
      propertyPath: m_LocalScale.z
      value: 0.05
      objectReference: {fileID: 0}
    - target: {fileID: -8679921383154817045, guid: a6bac1ad5487bbe4794ad30f2c071f7a,
        type: 3}
      propertyPath: m_LocalPosition.x
      value: 0.5
      objectReference: {fileID: 0}
    - target: {fileID: -8679921383154817045, guid: a6bac1ad5487bbe4794ad30f2c071f7a,
        type: 3}
      propertyPath: m_LocalPosition.y
      value: 0
      objectReference: {fileID: 0}
    - target: {fileID: -8679921383154817045, guid: a6bac1ad5487bbe4794ad30f2c071f7a,
        type: 3}
      propertyPath: m_LocalPosition.z
      value: 0.1
      objectReference: {fileID: 0}
    - target: {fileID: -8679921383154817045, guid: a6bac1ad5487bbe4794ad30f2c071f7a,
        type: 3}
      propertyPath: m_LocalRotation.w
      value: 1
      objectReference: {fileID: 0}
    - target: {fileID: -8679921383154817045, guid: a6bac1ad5487bbe4794ad30f2c071f7a,
        type: 3}
      propertyPath: m_LocalRotation.x
      value: -0
      objectReference: {fileID: 0}
    - target: {fileID: -8679921383154817045, guid: a6bac1ad5487bbe4794ad30f2c071f7a,
        type: 3}
      propertyPath: m_LocalRotation.y
      value: -0
      objectReference: {fileID: 0}
    - target: {fileID: -8679921383154817045, guid: a6bac1ad5487bbe4794ad30f2c071f7a,
        type: 3}
      propertyPath: m_LocalRotation.z
      value: -0
      objectReference: {fileID: 0}
    - target: {fileID: -8679921383154817045, guid: a6bac1ad5487bbe4794ad30f2c071f7a,
        type: 3}
      propertyPath: m_LocalEulerAnglesHint.x
      value: 0
      objectReference: {fileID: 0}
    - target: {fileID: -8679921383154817045, guid: a6bac1ad5487bbe4794ad30f2c071f7a,
        type: 3}
      propertyPath: m_LocalEulerAnglesHint.y
      value: 0
      objectReference: {fileID: 0}
    - target: {fileID: -8679921383154817045, guid: a6bac1ad5487bbe4794ad30f2c071f7a,
        type: 3}
      propertyPath: m_LocalEulerAnglesHint.z
      value: 0
      objectReference: {fileID: 0}
    - target: {fileID: -7511558181221131132, guid: a6bac1ad5487bbe4794ad30f2c071f7a,
        type: 3}
      propertyPath: m_Materials.Array.data[0]
      value: 
      objectReference: {fileID: 2100000, guid: 71673d9873285904ab00282788add27f, type: 2}
    - target: {fileID: 919132149155446097, guid: a6bac1ad5487bbe4794ad30f2c071f7a,
        type: 3}
      propertyPath: m_Name
      value: mesh_DoorFrame
      objectReference: {fileID: 0}
    m_RemovedComponents: []
  m_SourcePrefab: {fileID: 100100000, guid: a6bac1ad5487bbe4794ad30f2c071f7a, type: 3}
--- !u!1 &6020471155963675711 stripped
GameObject:
  m_CorrespondingSourceObject: {fileID: 919132149155446097, guid: a6bac1ad5487bbe4794ad30f2c071f7a,
    type: 3}
  m_PrefabInstance: {fileID: 6866981521895356782}
  m_PrefabAsset: {fileID: 0}
--- !u!64 &4359021491704561454
MeshCollider:
  m_ObjectHideFlags: 0
  m_CorrespondingSourceObject: {fileID: 0}
  m_PrefabInstance: {fileID: 0}
  m_PrefabAsset: {fileID: 0}
  m_GameObject: {fileID: 6020471155963675711}
  m_Material: {fileID: 0}
  m_IsTrigger: 0
  m_Enabled: 1
  serializedVersion: 4
  m_Convex: 0
  m_CookingOptions: 30
  m_Mesh: {fileID: 6274059880062070182, guid: a6bac1ad5487bbe4794ad30f2c071f7a, type: 3}
--- !u!4 &6397031436356099717 stripped
Transform:
  m_CorrespondingSourceObject: {fileID: -8679921383154817045, guid: a6bac1ad5487bbe4794ad30f2c071f7a,
    type: 3}
  m_PrefabInstance: {fileID: 6866981521895356782}
  m_PrefabAsset: {fileID: 0}
